{
  "project_info": {
    "project_number": "23111663453",
    "project_id": "bitrise-b5f05",
    "storage_bucket": "bitrise-b5f05.appspot.com"
  },
  "client": [
    {
      "client_info": {
        "mobilesdk_app_id": "1:23111663453:android:4508cf405ea7969f54f2b4",
        "android_client_info": {
          "package_name": "com.cube.nlnd.bitrise"
        }
      },
      "oauth_client": [
        {
          "client_id": "23111663453-4cne1mem60dk6sohn1r794278da2luql.apps.googleusercontent.com",
          "client_type": 3
        }
      ],
      "api_key": [
        {
          "current_key": "AIzaSyC3NHPm4CywJpjOs7QRFTnDXHHuB9gPT3I"
        }
      ],
      "services": {
        "appinvite_service": {
          "other_platform_oauth_client": [
            {
              "client_id": "23111663453-4cne1mem60dk6sohn1r794278da2luql.apps.googleusercontent.com",
              "client_type": 3
            }
          ]
        }
      }
    }
  ],
  "configuration_version": "1"
}